\relax 
\providecommand\hyper@newdestlabel[2]{}
\catcode `"\active 
\catcode `<\active 
\catcode `>\active 
\@nameuse{es@quoting}
\catcode `'\active 
\providecommand\HyperFirstAtBeginDocument{\AtBeginDocument}
\HyperFirstAtBeginDocument{\ifx\hyper@anchor\@undefined
\global\let\oldcontentsline\contentsline
\gdef\contentsline#1#2#3#4{\oldcontentsline{#1}{#2}{#3}}
\global\let\oldnewlabel\newlabel
\gdef\newlabel#1#2{\newlabelxx{#1}#2}
\gdef\newlabelxx#1#2#3#4#5#6{\oldnewlabel{#1}{{#2}{#3}}}
\AtEndDocument{\ifx\hyper@anchor\@undefined
\let\contentsline\oldcontentsline
\let\newlabel\oldnewlabel
\fi}
\fi}
\global\let\hyper@last\relax 
\gdef\HyperFirstAtBeginDocument#1{#1}
\providecommand\HyField@AuxAddToFields[1]{}
\providecommand\HyField@AuxAddToCoFields[2]{}
\select@language{spanish}
\@writefile{toc}{\select@language{spanish}}
\@writefile{lof}{\select@language{spanish}}
\@writefile{lot}{\select@language{spanish}}
\@writefile{toc}{\contentsline {section}{Ejercicio 0: Informaci\IeC {\'o}n sobre la cach\IeC {\'e} del sistema}{3}{section*.2}}
\@writefile{toc}{\contentsline {paragraph}{}{3}{section*.3}}
\@writefile{toc}{\contentsline {section}{Ejercicio 1: Memoria cach\IeC {\'e} y rendimiento}{5}{section*.4}}
\@writefile{toc}{\contentsline {paragraph}{}{5}{section*.5}}
\@writefile{toc}{\contentsline {paragraph}{}{5}{section*.6}}
\@writefile{toc}{\contentsline {paragraph}{}{5}{section*.7}}
\@writefile{toc}{\contentsline {paragraph}{Indique una explicaci\IeC {\'o}n razonada del motivo por el que hay que realizar m\IeC {\'u}ltiples veces la toma de medidas de rendimiento para cada programa y tama\IeC {\~n}o de matriz.}{6}{section*.8}}
\@writefile{toc}{\contentsline {paragraph}{}{6}{section*.9}}
\@writefile{toc}{\contentsline {section}{Ejercicio 2: Tama\IeC {\~n}o de la cach\IeC {\'e} y rendimiento}{7}{section*.10}}
\@writefile{toc}{\contentsline {paragraph}{Justifique el efecto observado. \IeC {\textquestiondown }Se observan cambios de tendencia al variar los tama\IeC {\~n}os de cach\IeC {\'e} para el programa slow?}{7}{section*.11}}
\@writefile{toc}{\contentsline {paragraph}{}{7}{section*.12}}
\@writefile{toc}{\contentsline {paragraph}{\IeC {\textquestiondown }Y para el programa fast?}{8}{section*.13}}
\@writefile{toc}{\contentsline {paragraph}{}{8}{section*.14}}
\@writefile{toc}{\contentsline {paragraph}{\IeC {\textquestiondown }Var\IeC {\'\i }a la tendencia cuando se fija en un tama\IeC {\~n}o de cach\IeC {\'e} concreto y compara el programa slow y fast? \IeC {\textquestiondown }A qu\IeC {\'e} se debe cada uno de los efectos observados?}{8}{section*.15}}
\@writefile{toc}{\contentsline {paragraph}{}{8}{section*.16}}
\@writefile{toc}{\contentsline {section}{Ejercicio 3: Cach\IeC {\'e} y multiplicaci\IeC {\'o}n de matrices}{9}{section*.17}}
\@writefile{toc}{\contentsline {paragraph}{}{9}{section*.18}}
\@writefile{toc}{\contentsline {paragraph}{}{9}{section*.19}}
\@writefile{toc}{\contentsline {paragraph}{}{10}{section*.20}}
\@writefile{toc}{\contentsline {paragraph}{}{10}{section*.21}}
