10192 141535161 21794605 39266597 21794605
10256 143382446 22063871 39824888 22063871
10320 145273193 22334512 40418717 22334512
10384 146980084 22607843 40820470 22607843
10448 148737617 22882154 41264871 22882154
10512 150923491 23157180 42129477 23157180
10576 152662519 23435115 42539153 23435115
10640 154825001 23798109 43374193 23798109
10704 156586764 24079920 43790519 24079920
10768 158529312 24362865 44379534 24362865
10832 160311845 24648027 44800742 24648027
10896 162104468 24934960 45223722 24934960
10960 163907207 25223525 45648815 25223525
11024 165719586 25513698 46075306 25513698
11088 167541483 25805376 46503338 25805376
11152 169373806 26098793 46933793 26098793
11216 171394011 26393264 47543997 26393264
11280 173426240 26689524 48158137 26689524
